{
  "project_info": {
    "project_number": "525322280453",
    "firebase_url": "https://pororot-175802.firebaseio.com",
    "project_id": "pororot-175802",
    "storage_bucket": "pororot-175802.appspot.com"
  },
  "client": [
    {
      "client_info": {
        "mobilesdk_app_id": "1:525322280453:android:fa85f842cea70ef6",
        "android_client_info": {
          "package_name": "com.jininsa.pororot"
        }
      },
      "oauth_client": [
        {
          "client_id": "525322280453-uhcblto2vicd2vp4ljd5q0gh59q99jus.apps.googleusercontent.com",
          "client_type": 1,
          "android_info": {
            "package_name": "com.jininsa.pororot",
            "certificate_hash": "78859f0e2dc6c90137a832905cb8b1d71cf4e973"
          }
        },
        {
          "client_id": "525322280453-k2o54eiea6psd6dvb0eunr0btromp37c.apps.googleusercontent.com",
          "client_type": 1,
          "android_info": {
            "package_name": "com.jininsa.pororot",
            "certificate_hash": "d8045c2604e66c57dc3e15c9ce49a6cfc16e09fd"
          }
        },
        {
          "client_id": "525322280453-2pbm53ekrohma6ub5oqiheide5sfsam6.apps.googleusercontent.com",
          "client_type": 3
        }
      ],
      "api_key": [
        {
          "current_key": "AIzaSyCnQi5R0buOOuSlidf9meTkrXt_ocqufp0"
        }
      ],
      "services": {
        "analytics_service": {
          "status": 1
        },
        "appinvite_service": {
          "status": 2,
          "other_platform_oauth_client": [
            {
              "client_id": "525322280453-2pbm53ekrohma6ub5oqiheide5sfsam6.apps.googleusercontent.com",
              "client_type": 3
            }
          ]
        },
        "ads_service": {
          "status": 2
        }
      }
    }
  ],
  "configuration_version": "1"
}